<svg xmlns="http://www.w3.org/2000/svg" width="181.772" height="92.973" viewBox="0 0 181.772 92.973">
  <g id="tile-feature5" transform="translate(-609.254 -2642.399)">
    <path id="Path_26" data-name="Path 26" d="M658.753,635.267a1.677,1.677,0,0,0-.028-.251c0-.025-.009-.051-.015-.075a1.68,1.68,0,0,0-.091-.283s0-.009,0-.014-.013-.02-.018-.031a1.628,1.628,0,0,0-.13-.231c-.012-.018-.024-.038-.037-.056a1.672,1.672,0,0,0-.184-.214c-.019-.019-.04-.036-.06-.053a1.7,1.7,0,0,0-.178-.139c-.021-.014-.04-.029-.061-.042l-.023-.016a17.958,17.958,0,0,1-2.818-2.134,10.339,10.339,0,0,1-2.317-3.907c-.231-1.824-2.4-3.036-6.951-3.9a87.93,87.93,0,0,0-27.632,0c-4.616.877-6.779,2.113-6.956,3.982a7.975,7.975,0,0,1-1.869,3.738,13.011,13.011,0,0,1-3.357,2.115,1.724,1.724,0,0,0-.249.132c-.023.015-.044.032-.066.047a1.636,1.636,0,0,0-.17.135c-.025.022-.049.046-.072.07a1.69,1.69,0,0,0-.149.176c-.014.019-.029.035-.042.055a1.7,1.7,0,0,0-.145.264c0,.009-.01.016-.013.024s-.01.034-.016.051a1.682,1.682,0,0,0-.069.223c-.007.031-.016.06-.021.091a1.768,1.768,0,0,0-.027.27c0,.01,0,.02,0,.031V705.79a1.7,1.7,0,0,0,1.122,1.6,8.705,8.705,0,0,1,3.179,2.07c.994,1.194,2.389,3.382,2.4,3.4a1.7,1.7,0,0,0,1.014.734,92.377,92.377,0,0,0,20.93,2.208c11.728,0,17.409-2.077,17.645-2.166a1.7,1.7,0,0,0,.89-.768,16.054,16.054,0,0,1,2.352-3.252,20.392,20.392,0,0,1,3.355-2.338,1.7,1.7,0,0,0,.882-1.489V635.315C658.756,635.3,658.754,635.283,658.753,635.267Zm-50.37,68.019V637.766a75.383,75.383,0,0,0,23.641,3.808,72.981,72.981,0,0,0,23.334-3.789v65.509a129.217,129.217,0,0,1-23.334,2.071A134.032,134.032,0,0,1,608.383,703.287Zm5.374-72.165a20.348,20.348,0,0,0,4.451,1.271,87.93,87.93,0,0,0,27.632,0,19.523,19.523,0,0,0,4.635-1.356,12.005,12.005,0,0,0,2.284,3.15c.234.223.473.437.713.641a70.591,70.591,0,0,1-21.448,3.349,73.2,73.2,0,0,1-21.3-3.232,10.5,10.5,0,0,0,1.022-.862A9.579,9.579,0,0,0,613.757,631.121Zm18.267-4.892c8.686,0,14.368,1.081,16.588,1.929-2.22.847-7.9,1.928-16.588,1.928s-14.369-1.081-16.588-1.928C617.655,627.311,623.338,626.229,632.024,626.229Zm17.517,84.4c-1.626.479-6.869,1.777-15.908,1.777a94.108,94.108,0,0,1-19.458-1.956c-.515-.782-1.455-2.17-2.244-3.125a140.715,140.715,0,0,0,20.093,1.44,136.671,136.671,0,0,0,20-1.453A18.38,18.38,0,0,0,649.541,710.628Z" transform="translate(68.269 2019.569)" fill="#fff"/>
    <path id="Path_172" data-name="Path 172" d="M658.753,635.267a1.677,1.677,0,0,0-.028-.251c0-.025-.009-.051-.015-.075a1.68,1.68,0,0,0-.091-.283s0-.009,0-.014-.013-.02-.018-.031a1.628,1.628,0,0,0-.13-.231c-.012-.018-.024-.038-.037-.056a1.672,1.672,0,0,0-.184-.214c-.019-.019-.04-.036-.06-.053a1.7,1.7,0,0,0-.178-.139c-.021-.014-.04-.029-.061-.042l-.023-.016a17.958,17.958,0,0,1-2.818-2.134,10.339,10.339,0,0,1-2.317-3.907c-.231-1.824-2.4-3.036-6.951-3.9a87.93,87.93,0,0,0-27.632,0c-4.616.877-6.779,2.113-6.956,3.982a7.975,7.975,0,0,1-1.869,3.738,13.011,13.011,0,0,1-3.357,2.115,1.724,1.724,0,0,0-.249.132c-.023.015-.044.032-.066.047a1.636,1.636,0,0,0-.17.135c-.025.022-.049.046-.072.07a1.69,1.69,0,0,0-.149.176c-.014.019-.029.035-.042.055a1.7,1.7,0,0,0-.145.264c0,.009-.01.016-.013.024s-.01.034-.016.051a1.682,1.682,0,0,0-.069.223c-.007.031-.016.06-.021.091a1.768,1.768,0,0,0-.027.27c0,.01,0,.02,0,.031V705.79a1.7,1.7,0,0,0,1.122,1.6,8.705,8.705,0,0,1,3.179,2.07c.994,1.194,2.389,3.382,2.4,3.4a1.7,1.7,0,0,0,1.014.734,92.377,92.377,0,0,0,20.93,2.208c11.728,0,17.409-2.077,17.645-2.166a1.7,1.7,0,0,0,.89-.768,16.054,16.054,0,0,1,2.352-3.252,20.392,20.392,0,0,1,3.355-2.338,1.7,1.7,0,0,0,.882-1.489V635.315C658.756,635.3,658.754,635.283,658.753,635.267Zm-50.37,68.019V637.766a75.383,75.383,0,0,0,23.641,3.808,72.981,72.981,0,0,0,23.334-3.789v65.509a129.217,129.217,0,0,1-23.334,2.071A134.032,134.032,0,0,1,608.383,703.287Zm5.374-72.165a20.348,20.348,0,0,0,4.451,1.271,87.93,87.93,0,0,0,27.632,0,19.523,19.523,0,0,0,4.635-1.356,12.005,12.005,0,0,0,2.284,3.15c.234.223.473.437.713.641a70.591,70.591,0,0,1-21.448,3.349,73.2,73.2,0,0,1-21.3-3.232,10.5,10.5,0,0,0,1.022-.862A9.579,9.579,0,0,0,613.757,631.121Zm18.267-4.892c8.686,0,14.368,1.081,16.588,1.929-2.22.847-7.9,1.928-16.588,1.928s-14.369-1.081-16.588-1.928C617.655,627.311,623.338,626.229,632.024,626.229Zm17.517,84.4c-1.626.479-6.869,1.777-15.908,1.777a94.108,94.108,0,0,1-19.458-1.956c-.515-.782-1.455-2.17-2.244-3.125a140.715,140.715,0,0,0,20.093,1.44,196.672,196.672,0,0,0,20-1.453S650.038,709.8,649.541,710.628Z" transform="translate(4.269 2019.568)" fill="#fff"/>
    <path id="Path_173" data-name="Path 173" d="M658.753,635.267a1.677,1.677,0,0,0-.028-.251c0-.025-.009-.051-.015-.075a1.68,1.68,0,0,0-.091-.283s0-.009,0-.014-.013-.02-.018-.031a1.628,1.628,0,0,0-.13-.231c-.012-.018-.024-.038-.037-.056a1.672,1.672,0,0,0-.184-.214c-.019-.019-.04-.036-.06-.053a1.7,1.7,0,0,0-.178-.139c-.021-.014-.04-.029-.061-.042l-.023-.016a17.958,17.958,0,0,1-2.818-2.134,10.339,10.339,0,0,1-2.317-3.907c-.231-1.824-2.4-3.036-6.951-3.9a87.93,87.93,0,0,0-27.632,0c-4.616.877-6.779,2.113-6.956,3.982a7.975,7.975,0,0,1-1.869,3.738,13.011,13.011,0,0,1-3.357,2.115,1.724,1.724,0,0,0-.249.132c-.023.015-.044.032-.066.047a1.636,1.636,0,0,0-.17.135c-.025.022-.049.046-.072.07a1.69,1.69,0,0,0-.149.176c-.014.019-.029.035-.042.055a1.7,1.7,0,0,0-.145.264c0,.009-.01.016-.013.024s-.01.034-.016.051a1.682,1.682,0,0,0-.069.223c-.007.031-.016.06-.021.091a1.768,1.768,0,0,0-.027.27c0,.01,0,.02,0,.031V705.79a1.7,1.7,0,0,0,1.122,1.6,8.705,8.705,0,0,1,3.179,2.07c.994,1.194,2.389,3.382,2.4,3.4a1.7,1.7,0,0,0,1.014.734,92.377,92.377,0,0,0,20.93,2.208c11.728,0,17.409-2.077,17.645-2.166a1.7,1.7,0,0,0,.89-.768,16.054,16.054,0,0,1,2.352-3.252,20.392,20.392,0,0,1,3.355-2.338,1.7,1.7,0,0,0,.882-1.489V635.315C658.756,635.3,658.754,635.283,658.753,635.267Zm-50.37,68.019V637.766a75.383,75.383,0,0,0,23.641,3.808,72.981,72.981,0,0,0,23.334-3.789v65.509a129.217,129.217,0,0,1-23.334,2.071A134.032,134.032,0,0,1,608.383,703.287Zm5.374-72.165a20.348,20.348,0,0,0,4.451,1.271,87.93,87.93,0,0,0,27.632,0,19.523,19.523,0,0,0,4.635-1.356,12.005,12.005,0,0,0,2.284,3.15c.234.223.473.437.713.641a70.591,70.591,0,0,1-21.448,3.349,73.2,73.2,0,0,1-21.3-3.232,10.5,10.5,0,0,0,1.022-.862A9.579,9.579,0,0,0,613.757,631.121Zm18.267-4.892c8.686,0,14.368,1.081,16.588,1.929-2.22.847-7.9,1.928-16.588,1.928s-14.369-1.081-16.588-1.928C617.655,627.311,623.338,626.229,632.024,626.229Zm17.517,84.4c-1.626.479-6.869,1.777-15.908,1.777a94.108,94.108,0,0,1-19.458-1.956c-.515-.782-1.455-2.17-2.244-3.125a140.715,140.715,0,0,0,20.093,1.44,136.671,136.671,0,0,0,20-1.453A18.38,18.38,0,0,0,649.541,710.628Z" transform="translate(132.269 2019.568)" fill="#fff"/>
  </g>
</svg>
